juno1 0.934746 0 0 0 0 0.205156 0.0625 0.122813 0.516543 0.463457 0
0 0.195213 0 0.159574 0.416277 0.306064 0 0.542553 0 1;
juno2 0.934746 0 0 0 0 0.205156 0.0625 0.122813 0.516543 0.660988 0.382716
0.0851064 0 0.329787 0.574468 0.416277 0.306064 0 0.542553 0 1;
juno3 0.680508 0 0.881356 0 0 0.0645313 0.0625 0.122813 0.602963 0.660988
0.382716 0.0851064 0 0.329787 0.574468 0.416277 0.306064 0 0.542553
0 1;
juno4 0.680508 0 0.881356 0 0 0.345781 0.0625 0.122813 0.602963 0.660988
0.185185 0.0851064 0 0.351064 0.202128 0.416277 0.306064 0 0.542553
0.287234 1;
juno5 0.703125 0.40625 0.711864 0.118644 0.296875 0.421875 0.28125
0.107188 0.602963 0.660988 0.358025 0.0851064 0 0.351064 0.202128 0.416277
0.306064 0 0.542553 0.287234 1;
juno6 0.375 0.859375 0 0.368644 0.28125 0.0625 0.203125 0.372813 0.602963
0.364691 0.123457 0.0851064 0 0.351064 0.202128 0.416277 0.306064 0
0.542553 0.287234 1;
junior 0.53125 0.859375 0.21875 0.25 0.046875 0.109375 0.21875 0 0.602963
0.364691 0.123457 0.0851064 0.180851 0.510638 0.691489 0.416277 0.103936
0.138298 0.542553 0.287234 1;
gantner 0.53125 0.859375 0.21875 0.25 0 0.0625 0.703125 0 0.602963
0.364691 0.518519 0.0851064 0.180851 0.510638 0.691489 0.416277 0.103936
0.138298 0.542553 0.287234 1;
prst8 0 1 0.423729 0.440678 0 0.159531 0.358 0 0.602963 0.364691 0.518519
0.0851064 0.180851 0.510638 0.691489 0.416277 0.103936 0.138298 0.542553
0.287234 1;
tbta 0.893729 0.617288 0 0 0 0.46875 0 0 0.55358 1 0 0.12766 0.212766
0.585106 0.968085 0.416277 0.0826596 0.159574 0.510638 0.287234 1;
space 0.40678 0.745763 0 0 0.078125 0.28125 0.125 0.169687 0.602963
0.364691 0.82716 0.968085 0.510638 0.882979 0.755319 0.437553 0.561383
0.329787 0.521277 0.287234 1;
test 0.934746 0 0 0 0 0.205156 0.0625 0.122813 0.516543 0.463457 0
0 0.195213 0 0.159574 0.416277 0.306064 0 0.542553 0 1;
